…
      [781]  1.01242542  1.12224898  1.12224898  0.42638889  1.04295956  0.45747529
      [787]  0.94995458  0.19753949  0.66965812  0.38190463  0.71428571  1.93055556
      [793]  2.03055556  0.41915629  0.76025963  1.14501680  1.47835014  1.82673748
      [799]  1.82680963  1.04858317  0.76014144  0.63718384  0.30956871  1.23149733
      [805]  0.05572104  0.12808971  0.32301724  0.26622120  1.23140193  0.58234519
      [811]  0.75395257  1.50324257  1.50324257  0.94690133  0.73802307  0.51702654
      [817]  1.47895066  0.44948744  0.60737021  0.69869979  0.83007033  1.00677284
      [823]  1.47939622  0.92941176  1.61045752  0.65032522  0.65032522  0.69766260
      [829]  1.37266260  2.07659474  2.76647563  3.55115721  3.56484285  0.11450943
      [835]  0.27891733  0.38576413  1.07088753  0.12387524  0.27159500  0.67083333
      [841]  1.37500000  2.07083333  2.81794328  3.58152114  4.30533066  4.97704784
      [847]  5.64876501  6.32048218  6.99219935  7.66391652  7.68474986  1.99903382
      [853]  0.34832451  1.55570892  2.02775861  2.55777931  3.25011886  3.26766272
      [859]  1.29864858  1.44504166  0.28519949
      # A tibble: 861 x 10
            id t.start t.stop death chemo      sex     dummy event event_count_pred
         <int>   <int>  <int> <int> <fct>      <fct>   <dbl> <int>            <dbl>
       1     1       0     24     0 Treated    Female  0.586     1           0.0172
       2     1      24    457     0 Treated    Female  0.586     1           0.354 
       3     1     457   1037     0 Treated    Female  0.586     0           0.770 
       4     2       0    489     0 NonTreated Male    0.709     1           1.36  
       5     2     489   1182     0 NonTreated Male    0.709     0           1.53  
       6     3       0     15     0 NonTreated Male   -0.109     1           0.144 
       7     3      15    783     1 NonTreated Male   -0.109     0           0.844 
       8     4       0    163     0 Treated    Female -0.453     1           0.186 
       9     4     163    288     0 Treated    Female -0.453     1           0.482 
      10     4     288    638     0 Treated    Female -0.453     1           0.644 
      # i 851 more rows
      # i 1 more variable: event_count_true <int>
